Interface to the open311 Standard • r311
…
Example

The following example loads r311, sets up a jurisdiction and retrieves a small amount of data on service tickets in Cologne, Germany.

library(r311)

o311_api("Cologne")
o311_requests()
#> Simple feature collection with 100 features and 11 fields
#> Geometry type: POINT
#> Dimension:     XY
#> Bounding box:  xmin: 6.822994 ymin: 50.85606 xmax: 7.100928 ymax: 51.06279
#> Geodetic CRS:  WGS 84
#> # A tibble: 100 × 12
#>    service_request_id title              description address_string service_name
#>    <chr>              <chr>              <chr>       <chr>          <chr>       
#>  1 20481-2024         #20481-2024 Schro… "31.08.202… 51065 Köln - … Schrottfahr…
#>  2 20482-2024         #20482-2024 Wilde… "Vor Haus … 51105 Köln - … Wilder Müll 
#>  3 20483-2024         #20483-2024 Defek… "gefährlic… 50677 Köln - … Defekte Obe…
#>  4 20484-2024         #20484-2024 Straß… "auffahrra… 50674 Köln - … Straßenbaus…
#>  5 20485-2024         #20485-2024 Wilde…  <NA>       50765 Köln - … Wilder Müll 
#>  6 20486-2024         #20486-2024 Kölne… "Grünfläch… 50765 Köln - … Kölner Grün 
#>  7 20487-2024         #20487-2024 Defek…  <NA>       51147 Köln - … Defekte Obe…
#>  8 20488-2024         #20488-2024 Schro… "Hallo, an… 50825 Köln - … Schrottfahr…
#>  9 20489-2024         #20489-2024 Wilde… "Evastr Ec… 51149 Köln - … Wilder Müll 
#> 10 20490-2024         #20490-2024 Wilde… "Wilder Mü… 50827 Köln - … Wilder Müll 
#> # ℹ 90 more rows
#> # ℹ 7 more variables: requested_datetime <chr>, updated_datetime <chr>,
#> #   status <chr>, media_url <chr>, status_note <chr>, service_code <chr>,
#> #   geometry <POINT [°]>
…
