Endpoints — o311_add_endpoint • r311
…
    See also

    o311_api

    Examples

# read default endpoints
o311_endpoints()
#> # A tibble: 67 × 9
#>    name            root  docs  jurisdiction key   pagination limit json  dialect
#>    <chr>           <chr> <chr> <chr>        <lgl> <lgl>      <int> <lgl> <chr>  
#>  1 Annaberg-Buchh… http… http… annberg-buc… FALSE TRUE          50 TRUE  Mark-a…
#>  2 Bloomington, IN http… NA    bloomington… FALSE TRUE        1000 TRUE  uReport
#>  3 Bonn, DE        http… http… bonn.de      FALSE TRUE         100 TRUE  Mark-a…
#>  4 Boston, MA      http… http… NA           FALSE TRUE          50 TRUE  Connec…
#>  5 Brookline, MA   http… http… brooklinema… FALSE TRUE          50 TRUE  Connec…
#>  6 Austin, TX      http… http… NA           FALSE TRUE          50 TRUE  Connec…
#>  7 Chicago, IL     http… http… cityofchica… FALSE TRUE          50 TRUE  Connec…
#>  8 Newport News, … http… http… cityofnewpo… FALSE TRUE          50 TRUE  Connec…
#>  9 San Diego, CA   http… http… sandiego.gov FALSE TRUE          50 TRUE  Connec…
#> 10 Köln / Cologne… http… NA    stadt-koeln… FALSE TRUE          50 TRUE  Mark-a…
#> # ℹ 57 more rows
…
# add a new endpoint
o311_add_endpoint(name = "test", root = "test.org/georeport/v2")

# read new endpoints
o311_endpoints()
#> # A tibble: 68 × 9
#>    name            root  docs  jurisdiction key   pagination limit json  dialect
#>    <chr>           <chr> <chr> <chr>        <lgl> <lgl>      <int> <lgl> <chr>  
#>  1 Annaberg-Buchh… http… http… annberg-buc… FALSE TRUE          50 TRUE  Mark-a…
#>  2 Bloomington, IN http… NA    bloomington… FALSE TRUE        1000 TRUE  uReport
#>  3 Bonn, DE        http… http… bonn.de      FALSE TRUE         100 TRUE  Mark-a…
#>  4 Boston, MA      http… http… NA           FALSE TRUE          50 TRUE  Connec…
#>  5 Brookline, MA   http… http… brooklinema… FALSE TRUE          50 TRUE  Connec…
#>  6 Austin, TX      http… http… NA           FALSE TRUE          50 TRUE  Connec…
#>  7 Chicago, IL     http… http… cityofchica… FALSE TRUE          50 TRUE  Connec…
#>  8 Newport News, … http… http… cityofnewpo… FALSE TRUE          50 TRUE  Connec…
#>  9 San Diego, CA   http… http… sandiego.gov FALSE TRUE          50 TRUE  Connec…
#> 10 Köln / Cologne… http… NA    stadt-koeln… FALSE TRUE          50 TRUE  Mark-a…
#> # ℹ 58 more rows
…
