Get civic service request data — o311_requests • r311
…
#> Simple feature collection with 5000 features and 13 fields
#> Geometry type: POINT
#> Dimension:     XY
#> Bounding box:  xmin: 8.465915 ymin: 47.32471 xmax: 8.599787 ymax: 47.43141
#> Geodetic CRS:  WGS 84
#> # A tibble: 5,000 × 14
#>    description       service_code updated_datetime service_notice interface_used
#>    <chr>             <chr>        <chr>            <chr>          <chr>         
#>  1 Hakenkreuzgrafit… Graffiti     2024-07-10T17:4…  NA            mobile        
#>  2 Hopp fcz: Hopp f… Graffiti     2024-07-10T17:4…  NA            iOS           
#>  3 Donnerstag um 13… Abfall/Samm… 2024-07-10T14:3… "Entsorgung +… iOS           
#>  4 Pfeil bei Tafel … Signalisati… 2024-07-10T14:4… "Guten Tag\r\… iOS           
#>  5 Tisch wurde leid… Abfall/Samm… 2024-07-10T14:3… "Entsorgung +… iOS           
#>  6 Holzabfall: Holz… Abfall/Samm… 2024-07-10T13:3… "Entsorgung +… iOS           
#>  7 Abfall: Abfall    Abfall/Samm… 2024-07-10T13:3… "Entsorgung +… iOS           
#>  8 Kübel: Kübel      Abfall/Samm… 2024-07-10T13:2… "Entsorgung +… iOS           
#>  9 Bretter: Bretter  Abfall/Samm… 2024-07-10T13:2… "Entsorgung +… iOS           
#> 10 Tisch: Tisch      Abfall/Samm… 2024-07-10T13:2… "Entsorgung +… desktop       
#> # ℹ 4,990 more rows
#> # ℹ 9 more variables: status <chr>, requested_datetime <chr>, title <chr>,
#> #   detail <chr>, service_request_id <int>, service_name <chr>,
#> #   agency_sent_datetime <chr>, media_url <chr>, geometry <POINT [°]>
…
