r311: An R interface to the open311 standard • r311
…
It can thus be difficult to manage the multitude of endpoints and
jurisdictions. Efforts have been made to list open311 servers, but most
of them are incomplete or outdated. r311 offers an updated
and modifiable endpoint list that defines a number of open311
implementations that are defined for use in the package. The list can be
read using o311_endpoints.

o311_endpoints()
#> # A tibble: 61 × 9
#>    name            root  docs  jurisdiction key   pagination limit json  dialect
#>    <chr>           <chr> <chr> <chr>        <lgl> <lgl>      <int> <lgl> <chr>  
#>  1 Annaberg-Buchh… http… http… annberg-buc… FALSE TRUE          50 TRUE  Mark-a…
#>  2 Bloomington, IN http… NA    bloomington… FALSE TRUE        1000 TRUE  uReport
#>  3 Bonn, DE        http… http… bonn.de      FALSE TRUE         100 TRUE  Mark-a…
#>  4 Boston, MA      http… http… boston.gov   FALSE TRUE          50 TRUE  Connec…
#>  5 Brookline, MA   http… http… brooklinema… FALSE TRUE          50 TRUE  Connec…
#>  6 Austin, TX      http… http… NA           FALSE TRUE          50 TRUE  Connec…
#>  7 Chicago, IL     http… http… cityofchica… FALSE TRUE          50 TRUE  Connec…
#>  8 Köln / Cologne… http… http… stadt-koeln… FALSE TRUE          50 TRUE  Mark-a…
#>  9 Ottawa, ON      http… NA    ottawa.ca    FALSE TRUE        1000 TRUE  NA     
#> 10 Rostock, DE     http… http… rostock.de   FALSE FALSE         NA TRUE  CitySDK
#> # ℹ 51 more rows
…
As the result is , you can safely start receiving real request
data.

Making requests

After selecting an API and attaching it to the session, all functions
can access it. You can now make requests.

To get an overview of the available services in a jurisdiction, you
can use o311_services, which returns a list of San
Francisco’s administrative services.

o311_services()
#> # A tibble: 21 × 6
#>    service_code             service_name        description metadata type  group
#>    <chr>                    <chr>               <chr>       <lgl>    <chr> <chr>
#>  1 6050cd8ce8961bbfa32bcf2c Shared Spaces       Use this o… TRUE     batch Gene…
#>  2 55d6cb85df86af51c305616e Noise Issue         NA          TRUE     batch Gene…
#>  3 5fe20af6e896f754e2784e99 Holiday Tree Remov… NA          FALSE    batch Stre…
#>  4 518d5892601827e3880000c5 Street or Sidewalk… NA          TRUE     batch Stre…
#>  5 518d572e601827e388000058 Garbage Containers  Report an … TRUE     batch Stre…
#>  6 50fea92c4aa48a4a9e000099 Graffiti            Report bui… TRUE     batch Stre…
#>  7 50fea6d54aa48a4a9e00002e Illegal Postings    Report han… TRUE     batch Stre…
#>  8 518d564b601827e38800002d Blocked Pedestrian… NA          TRUE     batch Stre…
#>  9 55e8409a45ff461f92000006 Encampment          NA          TRUE     batch Stre…
#> 10 518d5d52601827e3880001b1 Abandoned Vehicles  Report a v… TRUE     batch Park…
#> # ℹ 11 more rows

To get data about civic issues in the city area, run
o311_requests.

o311_requests()
#> Simple feature collection with 50 features and 10 fields
#> Geometry type: POINT
#> Dimension:     XY
#> Bounding box:  xmin: -122.5111 ymin: 37.74945 xmax: -122.3949 ymax: 37.79207
#> Geodetic CRS:  WGS 84
#> # A tibble: 50 × 11
#>    service_request_id status service_name               service_code description
#>  * <chr>              <chr>  <chr>                      <chr>        <chr>      
#>  1 1020140302         open   Street or Sidewalk Cleani… 518d5892601… Test - gar…
#>  2 1020139578         open   Street or Sidewalk Cleani… 518d5892601… Garbage on…
#>  3 1020139514         open   Encampment                 55e8409a45f… NA         
#>  4 1020139511         open   Shared Spaces              6050cd8ce89… NA         
#>  5 1020139507         open   Tree Maintenance           518d595d601… southbound…
#>  6 1020139506         open   Pothole & Street Issues    50fea9c24aa… southbound…
#>  7 1020139503         open   Tree Maintenance           518d595d601… southbound…
#>  8 1020139502         open   Pothole & Street Issues    50fea9c24aa… southbound…
#>  9 1020139501         open   Tree Maintenance           518d595d601… southbound…
#> 10 1020139500         open   Pothole & Street Issues    50fea9c24aa… southbound…
#> # ℹ 40 more rows
#> # ℹ 6 more variables: requested_datetime <chr>, updated_datetime <chr>,
#> #   address <chr>, media_url <chr>, status_notes <chr>, geometry <POINT [°]>

Using the output of o311_services, you can further
narrow down the output of requests. Open311 defines a set of standard
parameters which are implemented by all endpoints. Using the
service_code parameter with one of the previously returned
service codes, only complaints about businesses illegally using shared
spaces are returned.

o311_requests(service_code = "6050cd8ce8961bbfa32bcf2c")
#> Simple feature collection with 50 features and 9 fields
#> Geometry type: POINT
#> Dimension:     XY
#> Bounding box:  xmin: -122.444 ymin: 37.75765 xmax: -122.3931 ymax: 37.79074
#> Geodetic CRS:  WGS 84
#> # A tibble: 50 × 10
#>    service_request_id status service_name  service_code       requested_datetime
#>  * <chr>              <chr>  <chr>         <chr>              <chr>             
#>  1 1020139511         open   Shared Spaces 6050cd8ce8961bbfa… 2023-12-08T23:54:…
#>  2 1020139479         open   Shared Spaces 6050cd8ce8961bbfa… 2023-12-05T22:52:…
#>  3 1020139460         open   Shared Spaces 6050cd8ce8961bbfa… 2023-12-01T17:20:…
#>  4 1020139449         open   Shared Spaces 6050cd8ce8961bbfa… 2023-11-29T23:30:…
#>  5 1020139418         open   Shared Spaces 6050cd8ce8961bbfa… 2023-11-27T18:53:…
#>  6 1020139417         open   Shared Spaces 6050cd8ce8961bbfa… 2023-11-27T18:43:…
#>  7 1020139414         open   Shared Spaces 6050cd8ce8961bbfa… 2023-11-27T18:31:…
#>  8 1020139411         open   Shared Spaces 6050cd8ce8961bbfa… 2023-11-27T18:23:…
#>  9 1020139392         open   Shared Spaces 6050cd8ce8961bbfa… 2023-11-17T02:14:…
#> 10 1020139391         open   Shared Spaces 6050cd8ce8961bbfa… 2023-11-17T02:14:…
#> # ℹ 40 more rows
#> # ℹ 5 more variables: updated_datetime <chr>, address <chr>, description <chr>,
#> #   status_notes <chr>, geometry <POINT [°]>
…
Many endpoints define a page limit meaning that responses are divided
into pages. A query without parameters returns the first page.
Pagination can be controlled with the page argument. To
control pagination, the o311_request_all function can come
in handy. It automatically iterates through pages and heuristically
decides when to stop. The following example retrieves data from the
first two pages.

o311_request_all(max_pages = 2)
#> Simple feature collection with 100 features and 10 fields
#> Geometry type: POINT
#> Dimension:     XY
#> Bounding box:  xmin: -122.5111 ymin: 37.73277 xmax: -122.3931 ymax: 37.79207
#> Geodetic CRS:  WGS 84
#> # A tibble: 100 × 11
#>    service_request_id status service_name               service_code description
#>    <chr>              <chr>  <chr>                      <chr>        <chr>      
#>  1 1020140302         open   Street or Sidewalk Cleani… 518d5892601… Test - gar…
#>  2 1020139578         open   Street or Sidewalk Cleani… 518d5892601… Garbage on…
#>  3 1020139514         open   Encampment                 55e8409a45f… NA         
#>  4 1020139511         open   Shared Spaces              6050cd8ce89… NA         
#>  5 1020139507         open   Tree Maintenance           518d595d601… southbound…
#>  6 1020139506         open   Pothole & Street Issues    50fea9c24aa… southbound…
#>  7 1020139503         open   Tree Maintenance           518d595d601… southbound…
#>  8 1020139502         open   Pothole & Street Issues    50fea9c24aa… southbound…
#>  9 1020139501         open   Tree Maintenance           518d595d601… southbound…
#> 10 1020139500         open   Pothole & Street Issues    50fea9c24aa… southbound…
#> # ℹ 90 more rows
#> # ℹ 6 more variables: requested_datetime <chr>, updated_datetime <chr>,
#> #   address <chr>, media_url <chr>, status_notes <chr>, geometry <POINT [°]>
…
